"Alumnos","#"
"Datos Personales","/alumnos"
"Expediente","/expediente"
"Maestros","#"
"Datos personales","/maestros"
"Academias","/academias"
"Reportes","/reportes_de_maestros"
"Control Academico","#"
"Cursos","/cursos"
"Inscripciones","/inscripcions"
"Calificaciones","/calificacions"
"Kardex","/kardex"
"Becas","/becas"
"Tesorería","#"
"Pagos","/pagos"
"Catalogos","#"
"Categorias","/categories"
"Tipos de Cursos","/tipo_cursos"
"Ciudades","/ciudads"
"Estados","/estados"
"Paises","/paises"
"Asentamientos","/asentamientos"
"--","#"
"SysAdmin","#"
"Seguridad","#"
"Usuarios","/usuarios"
"Roles y Permisos","/roles"
"Auditoria","#"